src/CPU.vcd
$date
	Sun Apr  4 01:50:08 2021
$end
$version
	Icarus Verilog
$end
$timescale
	1s
$end
$scope module testbench $end
$var wire 256 ! mem_cpu_data [255:0] $end
$var wire 1 " mem_cpu_ack $end
$var wire 1 # cpu_mem_write $end
$var wire 1 $ cpu_mem_enable $end
$var wire 256 % cpu_mem_data [255:0] $end
$var wire 32 & cpu_mem_addr [31:0] $end
$var reg 1 ' Clk $end
$var reg 1 ( Reset $end
$var reg 1 ) Start $end
$var reg 27 * address [26:0] $end
$var reg 1 + flag $end
$var reg 4 , index [3:0] $end
$var reg 25 - tag [24:0] $end
$var integer 32 . counter [31:0] $end
$var integer 32 / i [31:0] $end
$var integer 32 0 j [31:0] $end
$var integer 32 1 outfile [31:0] $end
$var integer 32 2 outfile2 [31:0] $end
$scope module CPU $end
$var wire 1 3 Flush_ID $end
$var wire 1 4 Stall $end
$var wire 1 ' clk_i $end
$var wire 1 ( rst_i $end
$var wire 1 ) start_i $end
$var wire 32 5 write_back_data_WB [31:0] $end
$var wire 32 6 rs2_fwd_EX [31:0] $end
$var wire 32 7 rs2_data_ID [31:0] $end
$var wire 5 8 rs2_ID [4:0] $end
$var wire 32 9 rs1_data_ID [31:0] $end
$var wire 5 : rs1_ID [4:0] $end
$var wire 5 ; rd_ID [4:0] $end
$var wire 32 < pc_next_IF [31:0] $end
$var wire 32 = pc_IF [31:0] $end
$var wire 7 > opcode_ID [6:0] $end
$var wire 1 # mem_write_o $end
$var wire 1 $ mem_enable_o $end
$var wire 256 ? mem_data_o [255:0] $end
$var wire 256 @ mem_data_i [255:0] $end
$var wire 32 A mem_addr_o [31:0] $end
$var wire 1 " mem_ack_i $end
$var wire 32 B inst_IF [31:0] $end
$var wire 32 C imm_ID [31:0] $end
$var wire 10 D funct_ID [9:0] $end
$var wire 32 E data_loaded_MEM [31:0] $end
$var wire 32 F branch_target_ID [31:0] $end
$var wire 1 G branch_cond_ID $end
$var wire 32 H alu_res_EX [31:0] $end
$var wire 32 I alu_op2_EX [31:0] $end
$var wire 32 J alu_op1_EX [31:0] $end
$var wire 4 K alu_ctl_EX [3:0] $end
$var wire 1 L Stall_hazard $end
$var wire 1 M Stall_dcache $end
$var wire 1 N RegWrite_ID $end
$var wire 1 O PCWrite_ID $end
$var wire 1 P MemWrite_ID $end
$var wire 1 Q MemToReg_ID $end
$var wire 1 R MemRead_ID $end
$var wire 2 S Forward_B [1:0] $end
$var wire 2 T Forward_A [1:0] $end
$var wire 1 U Branch_ID $end
$var wire 1 V ALUSrc_ID $end
$var wire 2 W ALUOp_ID [1:0] $end
$var reg 2 X ALUOp_EX [1:0] $end
$var reg 1 Y ALUSrc_EX $end
$var reg 1 Z MemRead_EX $end
$var reg 1 [ MemRead_MEM $end
$var reg 1 \ MemToReg_EX $end
$var reg 1 ] MemToReg_MEM $end
$var reg 1 ^ MemToReg_WB $end
$var reg 1 _ MemWrite_EX $end
$var reg 1 ` MemWrite_MEM $end
$var reg 1 a RegWrite_EX $end
$var reg 1 b RegWrite_MEM $end
$var reg 1 c RegWrite_WB $end
$var reg 32 d alu_res_MEM [31:0] $end
$var reg 32 e alu_res_WB [31:0] $end
$var reg 32 f data_loaded_WB [31:0] $end
$var reg 32 g data_stored_MEM [31:0] $end
$var reg 10 h funct_EX [9:0] $end
$var reg 32 i imm_EX [31:0] $end
$var reg 32 j inst_ID [31:0] $end
$var reg 32 k pc_ID [31:0] $end
$var reg 5 l rd_EX [4:0] $end
$var reg 5 m rd_MEM [4:0] $end
$var reg 5 n rd_WB [4:0] $end
$var reg 5 o rs1_EX [4:0] $end
$var reg 32 p rs1_data_EX [31:0] $end
$var reg 5 q rs2_EX [4:0] $end
$var reg 32 r rs2_data_EX [31:0] $end
$scope module ALU $end
$var wire 32 s Op1_i [31:0] $end
$var wire 32 t Op2_i [31:0] $end
$var wire 6 u shft_amt [5:0] $end
$var wire 1 v Zero_o $end
$var wire 32 w Res_o [31:0] $end
$var wire 1 x Overflow_o $end
$var wire 4 y ALUCtl_i [3:0] $end
$var reg 65 z result [64:0] $end
$upscope $end
$scope module ALU_Control $end
$var wire 2 { ALUOp_i [1:0] $end
$var wire 10 | Funct_i [9:0] $end
$var wire 7 } funct7 [6:0] $end
$var wire 3 ~ funct3 [2:0] $end
$var reg 4 !" ALUCtl_o [3:0] $end
$upscope $end
$scope module Comparator $end
$var wire 3 "" Funct3_i [2:0] $end
$var wire 32 #" Rs2_i [31:0] $end
$var wire 32 $" Rs1_i [31:0] $end
$var wire 1 G Res_o $end
$upscope $end
$scope module Control $end
$var wire 7 %" Opcode_i [6:0] $end
$var reg 2 &" ALUOp_o [1:0] $end
$var reg 1 V ALUSrc_o $end
$var reg 1 U Branch_o $end
$var reg 1 R MemRead_o $end
$var reg 1 Q MemToReg_o $end
$var reg 1 P MemWrite_o $end
$var reg 1 N RegWrite_o $end
$upscope $end
$scope module Forward $end
$var wire 5 '" Rd_MEM_i [4:0] $end
$var wire 5 (" Rd_WB_i [4:0] $end
$var wire 1 b RegWrite_MEM_i $end
$var wire 1 c RegWrite_WB_i $end
$var wire 5 )" Rs1_EX_i [4:0] $end
$var wire 5 *" Rs2_EX_i [4:0] $end
$var reg 2 +" Forward_A [1:0] $end
$var reg 2 ," Forward_B [1:0] $end
$upscope $end
$scope module Hazard_Detection_Unit $end
$var wire 1 Z MemRead_i $end
$var wire 7 -" Opcode_i [6:0] $end
$var wire 5 ." Rd_i [4:0] $end
$var wire 5 /" Rs1_i [4:0] $end
$var wire 5 0" Rs2_i [4:0] $end
$var reg 1 1" NoOp_o $end
$var reg 1 O PCWrite_o $end
$var reg 1 L Stall_o $end
$upscope $end
$scope module Imm_Gen $end
$var wire 32 2" Inst_i [31:0] $end
$var wire 7 3" opcode [6:0] $end
$var wire 32 4" Imm_o [31:0] $end
$upscope $end
$scope module Instruction_Memory $end
$var wire 32 5" instr_o [31:0] $end
$var wire 32 6" addr_i [31:0] $end
$upscope $end
$scope module PC $end
$var wire 1 O PCWrite_i $end
$var wire 1 ' clk_i $end
$var wire 32 7" pc_i [31:0] $end
$var wire 1 ( rst_i $end
$var wire 1 4 stall_i $end
$var wire 1 ) start_i $end
$var reg 32 8" pc_o [31:0] $end
$upscope $end
$scope module Registers $end
$var wire 5 9" RDaddr_i [4:0] $end
$var wire 32 :" RDdata_i [31:0] $end
$var wire 5 ;" RS1addr_i [4:0] $end
$var wire 5 <" RS2addr_i [4:0] $end
$var wire 1 c RegWrite_i $end
$var wire 1 ' clk_i $end
$var wire 32 =" RS2data_o [31:0] $end
$var wire 32 >" RS1data_o [31:0] $end
$upscope $end
$scope module dcache $end
$var wire 1 ?" cache_dirty $end
$var wire 1 @" cache_sram_enable $end
$var wire 4 A" cache_sram_index [3:0] $end
$var wire 1 B" cache_sram_write $end
$var wire 1 ' clk_i $end
$var wire 1 [ cpu_MemRead_i $end
$var wire 1 ` cpu_MemWrite_i $end
$var wire 32 C" cpu_addr_i [31:0] $end
$var wire 32 D" cpu_data_i [31:0] $end
$var wire 32 E" cpu_data_o [31:0] $end
$var wire 1 F" cpu_req $end
$var wire 1 M cpu_stall_o $end
$var wire 256 G" mem_data_o [255:0] $end
$var wire 1 $ mem_enable_o $end
$var wire 1 # mem_write_o $end
$var wire 256 H" r_hit_data [255:0] $end
$var wire 1 ( rst_i $end
$var wire 1 I" write_hit $end
$var wire 1 J" sram_valid $end
$var wire 22 K" sram_tag [21:0] $end
$var wire 1 L" sram_dirty $end
$var wire 25 M" sram_cache_tag [24:0] $end
$var wire 256 N" sram_cache_data [255:0] $end
$var wire 256 O" mem_data_i [255:0] $end
$var wire 32 P" mem_addr_o [31:0] $end
$var wire 1 " mem_ack_i $end
$var wire 1 Q" hit $end
$var wire 23 R" cpu_tag [22:0] $end
$var wire 5 S" cpu_offset [4:0] $end
$var wire 4 T" cpu_index [3:0] $end
$var wire 25 U" cache_sram_tag [24:0] $end
$var wire 256 V" cache_sram_data [255:0] $end
$var reg 1 W" cache_write $end
$var reg 32 X" cpu_data [31:0] $end
$var reg 1 Y" mem_enable $end
$var reg 1 Z" mem_write $end
$var reg 3 [" state [2:0] $end
$var reg 256 \" w_hit_data [255:0] $end
$var reg 1 ]" write_back $end
$scope module dcache_sram $end
$var wire 4 ^" addr_i [3:0] $end
$var wire 1 ' clk_i $end
$var wire 256 _" data_i [255:0] $end
$var wire 1 @" enable_i $end
$var wire 1 Q" hit_o $end
$var wire 1 ( rst_i $end
$var wire 25 `" tag_i [24:0] $end
$var wire 1 a" valid1 $end
$var wire 1 b" valid2 $end
$var wire 1 B" write_i $end
$var wire 25 c" tag_o [24:0] $end
$var wire 1 d" eq2 $end
$var wire 1 e" eq1 $end
$var wire 256 f" data_o [255:0] $end
$var integer 32 g" i [31:0] $end
$var integer 32 h" j [31:0] $end
$upscope $end
$upscope $end
$upscope $end
$scope module Data_Memory $end
$var wire 1 " ack_o $end
$var wire 32 i" addr_i [31:0] $end
$var wire 1 ' clk_i $end
$var wire 256 j" data_i [255:0] $end
$var wire 256 k" data_o [255:0] $end
$var wire 1 $ enable_i $end
$var wire 1 ( rst_i $end
$var wire 1 # write_i $end
$var wire 27 l" addr [26:0] $end
$var reg 4 m" count [3:0] $end
$var reg 256 n" data [255:0] $end
$var reg 2 o" state [1:0] $end
$upscope $end
$upscope $end
$enddefinitions $end
#0
$dumpvars
b0 o"
bx n"
b0 m"
bx l"
bx k"
bx j"
bx00000 i"
b10 h"
b10000 g"
bx f"
xe"
xd"
bx c"
xb"
xa"
b1xxxxxxxxxxxxxxxxxxxxxxxx `"
bx _"
bx ^"
0]"
bx \"
b0 ["
0Z"
0Y"
bx X"
0W"
bx V"
b1xxxxxxxxxxxxxxxxxxxxxxxx U"
bx T"
bx S"
bx R"
xQ"
bx00000 P"
bx O"
bx N"
bx M"
xL"
bx K"
xJ"
xI"
bx H"
bx G"
xF"
bx E"
bx D"
bx C"
xB"
bx A"
x@"
x?"
bx >"
bx ="
bx <"
bx ;"
bx :"
bx 9"
b0 8"
bx 7"
b0 6"
bx 5"
bx 4"
bx 3"
bx 2"
x1"
bx 0"
bx /"
bx ."
bx -"
bx ,"
bx +"
bx *"
bx )"
bx ("
bx '"
bx &"
bx %"
bx $"
bx #"
bx ""
bx !"
bx ~
bx }
bx |
bx {
bx z
bx y
xx
bx w
xv
bx u
bx t
bx s
bx r
bx q
bx p
bx o
bx n
bx m
bx l
bx k
bx j
bx i
bx h
bx g
bx f
bx e
bx d
xc
xb
xa
x`
x_
x^
x]
x\
x[
xZ
xY
bx X
bx W
xV
xU
bx T
bx S
xR
xQ
xP
xO
xN
xM
xL
bx K
bx J
bx I
bx H
xG
bx F
bx E
bx D
bx C
bx B
bx00000 A
bx @
bx ?
bx >
b0 =
bx <
bx ;
bx :
bx 9
bx 8
bx 7
bx 6
bx 5
x4
x3
bx 2
bx 1
bx 0
bx /
b0 .
bx -
bx ,
x+
bx *
0)
1(
0'
bx00000 &
bx %
0$
0#
0"
bx !
$end
#12
b101 2
b11 1
b10 0
b10011 B
b10011 5"
b1000000000 /
1)
0(
#25
b100 <
b100 7"
03
1G
b0 F
b0 C
b0 4"
0U
0P
0R
0Q
1N
1V
b1 W
b1 &"
b0 ""
b0 9
b0 $"
b0 >"
1O
0L
01"
b0 7
b0 #"
b0 ="
b10011 >
b10011 %"
b10011 -"
b0 D
b0 ;
b0 :
b0 /"
b0 ;"
b0 8
b0 0"
b0 <"
b10011 3"
b10011 j
b10011 2"
b0 k
b1 .
1'
#50
0'
#75
b10 .
1'
#100
0'
#125
b11 .
1'
#150
0'
#175
b100 .
1'
#200
0'
#225
b101 .
1'
#250
0'
#275
b110 .
1'
#300
0'
#325
b111 .
1'
#350
0'
#375
b1000 .
1'
#400
0'
#425
b1001 .
1'
#450
0'
#475
b1010 .
1'
#500
0'
#525
b1011 .
1'
#550
0'
#575
b1100 .
1'
#600
0'
#625
b1101 .
1'
#650
0'
#675
b1110 .
1'
#700
0'
#725
b1111 .
1'
#750
0'
#775
b10000 .
1'
#800
0'
#825
b10001 .
1'
#850
0'
#875
b10010 .
1'
#900
0'
#925
b10011 .
1'
#950
0'
#975
b10100 .
1'
#1000
0'
#1025
b10101 .
1'
#1050
0'
#1075
b10110 .
1'
#1100
0'
#1125
b10111 .
1'
#1150
0'
#1175
b11000 .
1'
#1200
0'
#1225
b11001 .
1'
#1250
0'
#1275
b11010 .
1'
#1300
0'
#1325
b11011 .
1'
#1350
0'
#1375
b11100 .
1'
#1400
0'
#1425
b11101 .
1'
#1450
0'
#1475
b11110 .
1'
#1500
0'
#1525
b11111 .
1'
#1550
0'
#1575
b100000 .
1'
#1600
0'
#1625
b100001 .
1'
#1650
0'
#1675
b100010 .
1'
#1700
0'
#1725
b100011 .
1'
#1750
0'
#1775
b100100 .
1'
#1800
0'
#1825
b100101 .
1'
#1850
0'
#1875
b100110 .
1'
#1900
0'
#1925
b100111 .
1'
#1950
0'
#1975
b101000 .
1'
#2000
0'
#2025
b101001 .
1'
#2050
0'
#2075
b101010 .
1'
#2100
0'
#2125
b101011 .
1'
#2150
0'
#2175
b101100 .
1'
#2200
0'
#2225
b101101 .
1'
#2250
0'
#2275
b101110 .
1'
#2300
0'
#2325
b101111 .
1'
#2350
0'
#2375
b110000 .
1'
#2400
0'
#2425
b110001 .
1'
#2450
0'
#2475
b110010 .
1'
#2500
0'
#2525
b110011 .
1'
#2550
0'
#2575
b110100 .
1'
#2600
0'
#2625
b110101 .
1'
#2650
0'
#2675
b110110 .
1'
#2700
0'
#2725
b110111 .
1'
#2750
0'
#2775
b111000 .
1'
#2800
0'
#2825
b111001 .
1'
#2850
0'
#2875
b111010 .
1'
#2900
0'
#2925
b111011 .
1'
#2950
0'
#2975
b111100 .
1'
#3000
0'
#3025
b111101 .
1'
#3050
0'
#3075
b111110 .
1'
#3100
0'
#3125
b111111 .
1'
#3150
0'
#3175
b1000000 .
1'
#3200
0'
#3225
b1000001 .
1'
#3250
0'
#3275
b1000010 .
1'
#3300
0'
#3325
b1000011 .
1'
#3350
0'
#3375
b1000100 .
1'
#3400
0'
#3425
b1000101 .
1'
#3450
0'
#3475
b1000110 .
1'
#3500
0'
#3525
b1000111 .
1'
#3550
0'
#3575
b1001000 .
1'
#3600
0'
#3625
b1001001 .
1'
#3650
0'
#3675
b1001010 .
1'
#3700
0'
#3725
b1001011 .
1'
#3750
0'
#3775
b1001100 .
1'
#3800
0'
#3825
b1001101 .
1'
#3850
0'
#3875
b1001110 .
1'
#3900
0'
#3925
b1001111 .
1'
#3950
0'
#3975
b1010000 .
1'
#4000
0'
#4025
b1010001 .
1'
#4050
0'
#4075
b1010010 .
1'
#4100
0'
#4125
b1010011 .
1'
#4150
0'
#4175
b1010100 .
1'
#4200
0'
#4225
b1010101 .
1'
#4250
0'
#4275
b1010110 .
1'
#4300
0'
#4325
b1010111 .
1'
#4350
0'
#4375
b1011000 .
1'
#4400
0'
#4425
b1011001 .
1'
#4450
0'
#4475
b1011010 .
1'
#4500
0'
#4525
b1011011 .
1'
#4550
0'
#4575
b1011100 .
1'
#4600
0'
#4625
b1011101 .
1'
#4650
0'
#4675
b1011110 .
1'
#4700
0'
#4725
b1011111 .
1'
#4750
0'
#4775
b1100000 .
1'
#4800
0'
#4825
b1100001 .
1'
#4850
0'
#4875
b1100010 .
1'
#4900
0'
#4925
b1100011 .
1'
#4950
0'
#4975
b1100100 .
1'
#5000
0'
#5025
b1100101 .
1'
#5050
0'
#5075
b1100110 .
1'
#5100
0'
#5125
b1100111 .
1'
#5150
0'
#5175
b1101000 .
1'
#5200
0'
#5225
b1101001 .
1'
#5250
0'
#5275
b1101010 .
1'
#5300
0'
#5325
b1101011 .
1'
#5350
0'
#5375
b1101100 .
1'
#5400
0'
#5425
b1101101 .
1'
#5450
0'
#5475
b1101110 .
1'
#5500
0'
#5525
b1101111 .
1'
#5550
0'
#5575
b1110000 .
1'
#5600
0'
#5625
b1110001 .
1'
#5650
0'
#5675
b1110010 .
1'
#5700
0'
#5725
b1110011 .
1'
#5750
0'
#5775
b1110100 .
1'
#5800
0'
#5825
b1110101 .
1'
#5850
0'
#5875
b1110110 .
1'
#5900
0'
#5925
b1110111 .
1'
#5950
0'
#5975
b1111000 .
1'
#6000
0'
#6025
b1111001 .
1'
#6050
0'
#6075
b1111010 .
1'
#6100
0'
#6125
b1111011 .
1'
#6150
0'
#6175
b1111100 .
1'
#6200
0'
#6225
b1111101 .
1'
#6250
0'
#6275
b1111110 .
1'
#6300
0'
#6325
b1111111 .
1'
#6350
0'
#6375
b10000000 .
1'
#6400
0'
#6425
b10000001 .
1'
#6450
0'
#6475
b10000010 .
1'
#6500
0'
#6525
b10000011 .
1'
#6550
0'
#6575
b10000100 .
1'
#6600
0'
#6625
b10000101 .
1'
#6650
0'
#6675
b10000110 .
1'
#6700
0'
#6725
b10000111 .
1'
#6750
0'
#6775
b10001000 .
1'
#6800
0'
#6825
b10001001 .
1'
#6850
0'
#6875
b10001010 .
1'
#6900
0'
#6925
b10001011 .
1'
#6950
0'
#6975
b10001100 .
1'
#7000
0'
#7025
b10001101 .
1'
#7050
0'
#7075
b10001110 .
1'
#7100
0'
#7125
b10001111 .
1'
#7150
0'
#7175
b10010000 .
1'
#7200
0'
#7225
b10010001 .
1'
#7250
0'
#7275
b10010010 .
1'
#7300
0'
#7325
b10010011 .
1'
#7350
0'
#7375
b10010100 .
1'
#7400
0'
#7425
b10010101 .
1'
#7450
0'
#7475
b10010110 .
1'
#7500
0'
#7525
b10010111 .
1'
#7550
0'
#7575
b10011000 .
1'
#7600
0'
#7625
b10011001 .
1'
#7650
0'
#7675
b10011010 .
1'
#7700
0'
#7725
b10011011 .
1'
#7750
0'
#7775
b10011100 .
1'
#7800
0'
#7825
b10011101 .
1'
#7850
0'
#7875
b10011110 .
1'
#7900
0'
#7925
b10011111 .
1'
#7950
0'
#7975
b10100000 .
1'
#8000
0'
#8025
b10100001 .
1'
#8050
0'
#8075
b10100010 .
1'
#8100
0'
#8125
b10100011 .
1'
#8150
0'
#8175
b10100100 .
1'
#8200
0'
#8225
b10100101 .
1'
#8250
0'
#8275
b10100110 .
1'
#8300
0'
#8325
b10100111 .
1'
#8350
0'
#8375
b10101000 .
1'
#8400
0'
#8425
b10101001 .
1'
#8450
0'
#8475
b10101010 .
1'
#8500
0'
#8525
b10101011 .
1'
#8550
0'
#8575
b10101100 .
1'
#8600
0'
#8625
b10101101 .
1'
#8650
0'
#8675
b10101110 .
1'
#8700
0'
#8725
b10101111 .
1'
#8750
0'
#8775
b10110000 .
1'
#8800
0'
#8825
b10110001 .
1'
#8850
0'
#8875
b10110010 .
1'
#8900
0'
#8925
b10110011 .
1'
#8950
0'
#8975
b10110100 .
1'
#9000
0'
#9025
b10110101 .
1'
#9050
0'
#9075
b10110110 .
1'
#9100
0'
#9125
b10110111 .
1'
#9150
0'
#9175
b10111000 .
1'
#9200
0'
#9225
b10111001 .
1'
#9250
0'
#9275
b10111010 .
1'
#9300
0'
#9325
b10111011 .
1'
#9350
0'
#9375
b10111100 .
1'
#9400
0'
#9425
b10111101 .
1'
#9450
0'
#9475
b10111110 .
1'
#9500
0'
#9525
b10111111 .
1'
#9550
0'
#9575
b11000000 .
1'
#9600
0'
#9625
b11000001 .
1'
#9650
0'
#9675
b11000010 .
1'
#9700
0'
#9725
b11000011 .
1'
#9750
0'
#9775
b11000100 .
1'
#9800
0'
#9825
b11000101 .
1'
#9850
0'
#9875
b11000110 .
1'
#9900
0'
#9925
b11000111 .
1'
#9950
0'
#9975
b11001000 .
1'
#10000
0'
#10025
b11001001 .
b1111 *
b1111 ,
b0 -
b10000 /
b10 0
1'
